{
    "actions" : [

        {
            "add" : {
                 "index" : "git_grimoirelab_171229_enriched_171229",
                 "alias" : "git",
                 "filter" : {
    "terms": {
        "origin": [
            "https://github.com/rust-lang/rfcs.git",
            "https://github.com/rust-lang/rust.git",
            "https://github.com/aframevr/aframe.git",
            "https://github.com/servo/servo.git",
            "https://github.com/servo/servo.git",
            "https://github.com/xiph/rav1e.git",
            "https://github.com/xiph/daala.git",
            "https://github.com/tdaede/image-compare.git",
            "https://aomedia.googlesource.com/aom"
        ]
    }
}
            }
        },

        {
            "add" : {
                 "index" : "git_grimoirelab_171229_enriched_171229",
                 "alias" : "git_author",
                 "filter" : {}
            }
        },

        {
            "add" : {
                 "index" : "git_grimoirelab_171229_enriched_171229",
                 "alias" : "git_enrich",
                 "filter" : {}
            }
        },

        {
            "add" : {
                 "index" : "github_grimoirelab_170908_enriched_170908b",
                 "alias" : "github_issues",
                 "filter" : {
    "terms": {
        "origin": [
            "https://github.com/rust-lang/rfcs",
            "https://github.com/rust-lang/rust",
            "https://github.com/aframevr/aframe",
            "https://github.com/servo/servo",
            "https://github.com/servo/servo",
            "https://github.com/xiph/rav1e",
            "https://github.com/xiph/daala",
            "https://github.com/tdaede/image-compare"
        ]
    }
}
            }
        },

        {
            "add" : {
                 "index" : "github_grimoirelab_170908_enriched_170908b",
                 "alias" : "github_issues_enrich",
                 "filter" : {}
            }
        },

        {
            "add" : {
                 "index" : "github_grimoirelab_170908_enriched_170908b",
                 "alias" : "issues_closed",
                 "filter" : {
    "terms": {
        "origin": [
            "https://github.com/rust-lang/rfcs",
            "https://github.com/rust-lang/rust"
        ]
    },
    "issues_created": {},
    "issues_updated": {}
}
            }
        },

        {
            "add" : {
                 "index" : "pipermail_grimoirelab_170908__enriched_170908b",
                 "alias" : "mbox",
                 "filter" : {}
            }
        },

        {
            "add" : {
                 "index" : "pipermail_grimoirelab_170908__enriched_170908b",
                 "alias" : "mbox_enrich",
                 "filter" : {}
            }
        }

    ]
}
